%YAML 1.1
%TAG !u! tag:unity3d.com,2011:
--- !u!1 &4826442573178565315
GameObject:
  m_ObjectHideFlags: 0
  m_CorrespondingSourceObject: {fileID: 0}
  m_PrefabInstance: {fileID: 0}
  m_PrefabAsset: {fileID: 0}
  serializedVersion: 6
  m_Component:
  - component: {fileID: 4826442573178565317}
  - component: {fileID: 4826442573178565314}
  - component: {fileID: -8005164745784936775}
  m_Layer: 6
  m_Name: PowerUp
  m_TagString: Untagged
  m_Icon: {fileID: 0}
  m_NavMeshLayer: 0
  m_StaticEditorFlags: 0
  m_IsActive: 1
--- !u!4 &4826442573178565317
Transform:
  m_ObjectHideFlags: 0
  m_CorrespondingSourceObject: {fileID: 0}
  m_PrefabInstance: {fileID: 0}
  m_PrefabAsset: {fileID: 0}
  m_GameObject: {fileID: 4826442573178565315}
  m_LocalRotation: {x: 0, y: 0, z: 0, w: 1}
  m_LocalPosition: {x: 0, y: 0, z: 0}
  m_LocalScale: {x: 1, y: 1, z: 1}
  m_Children:
  - {fileID: 5003585565560201122}
  m_Father: {fileID: 0}
  m_RootOrder: 0
  m_LocalEulerAnglesHint: {x: 0, y: 0, z: 0}
--- !u!135 &4826442573178565314
SphereCollider:
  m_ObjectHideFlags: 0
  m_CorrespondingSourceObject: {fileID: 0}
  m_PrefabInstance: {fileID: 0}
  m_PrefabAsset: {fileID: 0}
  m_GameObject: {fileID: 4826442573178565315}
  m_Material: {fileID: 0}
  m_IsTrigger: 0
  m_Enabled: 1
  serializedVersion: 2
  m_Radius: 0.32
  m_Center: {x: 0, y: 0.25, z: 0}
--- !u!114 &-8005164745784936775
MonoBehaviour:
  m_ObjectHideFlags: 0
  m_CorrespondingSourceObject: {fileID: 0}
  m_PrefabInstance: {fileID: 0}
  m_PrefabAsset: {fileID: 0}
  m_GameObject: {fileID: 4826442573178565315}
  m_Enabled: 1
  m_EditorHideFlags: 0
  m_Script: {fileID: 11500000, guid: 011b476aea9e57a48a28aa0db69a9de8, type: 3}
  m_Name: 
  m_EditorClassIdentifier: 
--- !u!1001 &4826442572400539721
PrefabInstance:
  m_ObjectHideFlags: 0
  serializedVersion: 2
  m_Modification:
    m_TransformParent: {fileID: 4826442573178565317}
    m_Modifications:
    - target: {fileID: -8679921383154817045, guid: f065e488f8d496545bee8263204c1b72, type: 3}
      propertyPath: m_RootOrder
      value: 0
      objectReference: {fileID: 0}
    - target: {fileID: -8679921383154817045, guid: f065e488f8d496545bee8263204c1b72, type: 3}
      propertyPath: m_LocalPosition.x
      value: 0
      objectReference: {fileID: 0}
    - target: {fileID: -8679921383154817045, guid: f065e488f8d496545bee8263204c1b72, type: 3}
      propertyPath: m_LocalPosition.y
      value: 0
      objectReference: {fileID: 0}
    - target: {fileID: -8679921383154817045, guid: f065e488f8d496545bee8263204c1b72, type: 3}
      propertyPath: m_LocalPosition.z
      value: 0
      objectReference: {fileID: 0}
    - target: {fileID: -8679921383154817045, guid: f065e488f8d496545bee8263204c1b72, type: 3}
      propertyPath: m_LocalRotation.w
      value: 1
      objectReference: {fileID: 0}
    - target: {fileID: -8679921383154817045, guid: f065e488f8d496545bee8263204c1b72, type: 3}
      propertyPath: m_LocalRotation.x
      value: -0
      objectReference: {fileID: 0}
    - target: {fileID: -8679921383154817045, guid: f065e488f8d496545bee8263204c1b72, type: 3}
      propertyPath: m_LocalRotation.y
      value: -0
      objectReference: {fileID: 0}
    - target: {fileID: -8679921383154817045, guid: f065e488f8d496545bee8263204c1b72, type: 3}
      propertyPath: m_LocalRotation.z
      value: -0
      objectReference: {fileID: 0}
    - target: {fileID: -8679921383154817045, guid: f065e488f8d496545bee8263204c1b72, type: 3}
      propertyPath: m_LocalEulerAnglesHint.x
      value: 0
      objectReference: {fileID: 0}
    - target: {fileID: -8679921383154817045, guid: f065e488f8d496545bee8263204c1b72, type: 3}
      propertyPath: m_LocalEulerAnglesHint.y
      value: 0
      objectReference: {fileID: 0}
    - target: {fileID: -8679921383154817045, guid: f065e488f8d496545bee8263204c1b72, type: 3}
      propertyPath: m_LocalEulerAnglesHint.z
      value: 0
      objectReference: {fileID: 0}
    - target: {fileID: -7511558181221131132, guid: f065e488f8d496545bee8263204c1b72, type: 3}
      propertyPath: m_Materials.Array.data[0]
      value: 
      objectReference: {fileID: 6176237238205673327, guid: f065e488f8d496545bee8263204c1b72, type: 3}
    - target: {fileID: 919132149155446097, guid: f065e488f8d496545bee8263204c1b72, type: 3}
      propertyPath: m_Name
      value: barrel
      objectReference: {fileID: 0}
    - target: {fileID: 919132149155446097, guid: f065e488f8d496545bee8263204c1b72, type: 3}
      propertyPath: m_Layer
      value: 6
      objectReference: {fileID: 0}
    m_RemovedComponents: []
  m_SourcePrefab: {fileID: 100100000, guid: f065e488f8d496545bee8263204c1b72, type: 3}
--- !u!4 &5003585565560201122 stripped
Transform:
  m_CorrespondingSourceObject: {fileID: -8679921383154817045, guid: f065e488f8d496545bee8263204c1b72, type: 3}
  m_PrefabInstance: {fileID: 4826442572400539721}
  m_PrefabAsset: {fileID: 0}
